<?xml version="1.0" encoding="utf-8"?>
<!-- Generator: Adobe Illustrator 18.0.0, SVG Export Plug-In . SVG Version: 6.00 Build 0)  -->
<!DOCTYPE svg PUBLIC "-//W3C//DTD SVG 1.1//EN" "http://www.w3.org/Graphics/SVG/1.1/DTD/svg11.dtd">
<svg version="1.1" id="Layer_1" xmlns="http://www.w3.org/2000/svg" xmlns:xlink="http://www.w3.org/1999/xlink" x="0px" y="0px"
	 viewBox="0 0 100 100" enable-background="new 0 0 100 100" xml:space="preserve">
<g>
	<path fill="#C9A376" d="M87.2,16.5C78,6.4,64.8,0,50,0C22.4,0,0,22.4,0,50c0,13.5,5.4,25.8,14.1,34.8C23.2,94.2,35.9,100,50,100
		c27.6,0,50-22.4,50-50C100,37.1,95.1,25.4,87.2,16.5z"/>
	<g>
		<path fill="#323130" d="M50.1,96.9c-26,0-47.1-21.1-47.1-47.1c0-26,21.1-47.1,47.1-47.1s47.1,21.1,47.1,47.1
			C97.2,75.8,76.1,96.9,50.1,96.9z M50.1,4.4c-25,0-45.4,20.4-45.4,45.4c0,25,20.4,45.4,45.4,45.4s45.4-20.4,45.4-45.4
			C95.6,24.8,75.2,4.4,50.1,4.4z"/>
	</g>
	<g>
		<g>
			<path fill="#323130" d="M37.3,63.5c-0.6,0.5-0.9,1.2-1,2c0,0.8,0.3,1.5,0.8,2.1c0.6,0.6,1.3,0.8,2.1,0.8c0.8,0,1.5-0.4,2-1l7.8-9
				l-2.5-2.9L37.3,63.5z"/>
			<path fill="#323130" d="M72.7,38.2c-0.5-0.5-1.3-0.5-1.8,0l-5.8,5.8c-0.4,0.4-1,0.4-1.3,0c-0.4-0.4-0.4-1,0-1.3l5.8-5.8
				c0.5-0.5,0.5-1.3,0-1.8c-0.5-0.5-1.3-0.5-1.8,0l-5.8,5.8c-0.4,0.4-1,0.4-1.3,0c-0.4-0.4-0.4-1,0-1.3l5.8-5.8
				c0.5-0.5,0.5-1.3,0-1.8c-0.4-0.4-1.2-0.4-1.6,0c-1.8,1.8-6.1,6.1-6.5,6.5c-1.3,1.3-1.8,3.1-1.6,4.8c0.3,1.9-0.4,3.9-1.9,5.2
				l-2.5,2.1l2,1.7l2-2.3c1.3-1.5,3.2-2.2,5.2-1.9c1.7,0.3,3.5-0.3,4.8-1.6c0.4-0.4,4.6-4.6,6.4-6.4C73.2,39.5,73.2,38.7,72.7,38.2z
				"/>
			<path fill="#323130" d="M63.8,63.5L46.3,48.4c-1.5-1.3-2.2-3.2-1.9-5.2c0.3-1.7-0.3-3.5-1.6-4.8c-1.7-1.7-6.1-4-9.1-4
				c-0.9,0-1.7,0.2-2.2,0.7c-2.2,2.2,1.1,9.1,3.3,11.2c1.1,1.1,2.5,1.6,4,1.6c0.3,0,0.6,0,0.8-0.1c0.3,0,0.6-0.1,0.8-0.1
				c1.7,0,3.3,0.7,4.4,2l15.1,17.5c0.5,0.6,1.2,0.9,2,1c0,0,0.1,0,0.1,0c0.7,0,1.5-0.3,2-0.8c0.6-0.6,0.8-1.3,0.8-2.1
				C64.7,64.7,64.4,64,63.8,63.5z"/>
		</g>
		<polygon id="XMLID_10_" fill="#323130" points="29,52.4 31.2,53.8 29,55.3 27.5,57.5 26.1,55.2 23.8,53.7 26.1,52.3 27.6,50.1 		
			"/>
		<polygon id="XMLID_9_" fill="#323130" points="73.9,52.4 76.2,53.8 73.9,55.3 72.4,57.5 71,55.2 68.8,53.7 71,52.3 72.5,50.1 		
			"/>
	</g>
</g>
</svg>
